<?xml version="1.0" encoding="UTF-8" standalone="no"?>
<svg
   xmlns:dc="http://purl.org/dc/elements/1.1/"
   xmlns:cc="http://creativecommons.org/ns#"
   xmlns:rdf="http://www.w3.org/1999/02/22-rdf-syntax-ns#"
   xmlns:svg="http://www.w3.org/2000/svg"
   xmlns="http://www.w3.org/2000/svg"
   xmlns:sodipodi="http://sodipodi.sourceforge.net/DTD/sodipodi-0.dtd"
   xmlns:inkscape="http://www.inkscape.org/namespaces/inkscape"
   version="1.1"
   x="0px"
   y="0px"
   viewBox="0 0 95.297 100"
   enable-background="new 0 0 95.297 100"
   xml:space="preserve"
   id="svg12"
   sodipodi:docname="road61.svg"
   inkscape:version="0.92.4 (5da689c313, 2019-01-14)"><metadata
   id="metadata18"><rdf:RDF><cc:Work
       rdf:about=""><dc:format>image/svg+xml</dc:format><dc:type
         rdf:resource="http://purl.org/dc/dcmitype/StillImage" /><dc:title></dc:title></cc:Work></rdf:RDF></metadata><defs
   id="defs16" /><sodipodi:namedview
   pagecolor="#ffffff"
   bordercolor="#666666"
   borderopacity="1"
   objecttolerance="10"
   gridtolerance="10"
   guidetolerance="10"
   inkscape:pageopacity="0"
   inkscape:pageshadow="2"
   inkscape:window-width="2256"
   inkscape:window-height="1410"
   id="namedview14"
   showgrid="false"
   inkscape:zoom="6.675088"
   inkscape:cx="41.064394"
   inkscape:cy="56.585307"
   inkscape:window-x="-11"
   inkscape:window-y="-11"
   inkscape:window-maximized="1"
   inkscape:current-layer="svg12" />

<g
   id="g10">
<path
   style="fill: #d2d2d2;"
   d="M92.063,53.376c-12.254-20.832,1.93-33.762,1.93-33.762L75.985,0.965c0,0-9.646,10.289-26.045,0   c-0.203-0.128-0.755-0.119-0.965,0C30.326,11.575,20.681,0,20.681,0L1.709,19.293c0,0,13.527,12.417,2.894,32.476   c-14.147,26.688,8.49,38.398,12.219,38.906c14.148,1.93,19.413,1.827,25.402,4.181c2.283,0.897,8.36,5.145,8.36,5.145   s5.746-4.851,8.038-5.788c4.686-1.916,15.024-2.31,19.936-3.537C87.562,88.425,101.709,69.775,92.063,53.376z M75.026,85.907   c-4.344,1.093-13.489,1.443-17.633,3.15c-2.027,0.834-7.11,5.154-7.11,5.154s-5.373-3.781-7.393-4.582   c-5.298-2.096-9.953-2.004-22.467-3.723c-3.298-0.453-23.32-10.884-10.807-34.653c9.403-17.866-1.799-30.997-1.799-30.997   L21.323,5.145c0,0,5.193,4.849,13.774,4.849c3.935,0,8.579-1.019,13.764-3.989c0.096-0.054,0.268-0.083,0.438-0.083   c0.165,0,0.328,0.026,0.416,0.083c4.989,3.152,9.503,4.187,13.277,4.187c7.197,0,11.706-3.76,11.706-3.76L88.204,20.9   c0,0-12.072,13.23-1.234,31.785C95.502,67.292,82.989,83.901,75.026,85.907z"
   id="path2" />

<g
   id="g8">
<path
   style="fill: #d2d2d2;"
   d="M80.331,32.476c0.899-5.237,3.069-9.197,4.531-11.386L74.303,9.774c-2.229,1.278-6.17,2.988-11.31,2.988    c-4.601,0-9.219-1.355-13.746-4.031c-4.718,2.544-9.474,3.834-14.149,3.834c-6.257,0-10.912-2.313-13.425-3.951L11.115,20.428    c1.471,2.254,3.72,6.458,4.549,12.048H80.331z"
   id="path4" />

<path
   style="fill: #d2d2d2;"
   d="M84.749,53.982c-4.161-7.121-5.166-13.572-4.738-18.935H15.928c0.299,5.001-0.616,10.909-4.035,17.404    c-4.277,8.126-4.93,15.288-1.936,21.285c3.159,6.329,9.489,9.407,10.822,9.623c3.703,0.507,6.662,0.851,9.273,1.152    c6.082,0.705,9.753,1.131,13.785,2.726c1.559,0.618,4.435,2.486,6.304,3.751c1.805-1.461,4.635-3.636,6.273-4.311    c2.785-1.146,7.122-1.694,11.317-2.224c2.603-0.329,5.062-0.639,6.666-1.042c3.354-0.846,8.421-5.52,11.092-11.879    C87.305,67.214,88.65,60.661,84.749,53.982z"
   id="path6" /></g>

</g><g
   id="g836"
   transform="matrix(0.012868,0,0,-0.012868,10.656215,85.252992)"
   style="fill:#1d3c5f;fill-opacity:0.94117647;stroke:none"><path
     id="path832"
     d="M 1607,3097 C 1427,2881 1239,2649 1190,2580 975,2279 889,2072 860,1785 c -30,-292 12,-516 132,-702 254,-391 811,-573 1342,-439 296,76 533,267 637,516 55,131 73,228 73,410 1,100 -4,189 -12,225 -19,86 -60,212 -89,270 -66,130 -191,274 -308,355 -71,49 -204,108 -297,132 -86,21 -252,30 -315,16 -29,-7 12,45 355,445 213,248 391,458 396,465 6,9 -80,12 -416,11 h -423 z m 507,-1165 c 86,-40 158,-112 199,-200 29,-60 32,-77 32,-157 0,-80 -3,-97 -31,-155 -39,-83 -111,-155 -194,-194 -59,-28 -74,-31 -165,-31 -89,1 -106,4 -158,29 -153,74 -248,252 -219,409 48,259 309,405 536,299 z"
     inkscape:connector-curvature="0"
     style="fill:#1d3c5f;fill-opacity:0.94117647" /><path
     id="path834"
     d="m 3573,3233 -393,-255 v -344 c 0,-189 2,-344 4,-344 3,0 105,65 228,145 l 223,144 3,-964 2,-965 h 350 350 v 1420 1420 l -187,-1 -188,-1 z"
     inkscape:connector-curvature="0"
     style="fill:#1d3c5f;fill-opacity:0.94117647" /></g></svg>